Download data from the Quarterly Census of Employment and Wages (QCEW) • entrydatar
…
Note that the dataset can be large. Downloading most of the industry 3 and 4 digits cuts across counties and MSAs ends up with 57mn rows. Saving it in .rds formats takes around 2gb of memory.

On the other hand for something more precise, say nationally by size cuts at the 6 digits industry level we would call the cut 28:

dt_naics <- get_qcew_cut(        
  data_cut = 28,       
  industry = "naics", 
  year_start = 1990, year_end = 2015,       
  path_data = "~/Downloads/", write = F)

as_tibble(dt_naics)
# A tibble: 208,667 x 47
   area… own_… indus… aggl… size…  year   qtr disc… area… own_… indu… aggl… size… qtrly… month… month… month… total… taxa… qtrl… avg_… lq_d… lq_q… lq_m… lq_m… lq_m… lq_t… lq_t… lq_q… lq_a… oty_… oty_… oty_… oty_… oty_… oty_… oty_… oty_… oty_… oty_… oty_… oty_… oty_… oty_… oty_… oty_… oty_…
   <chr> <dbl>  <dbl> <dbl> <dbl> <dbl> <dbl> <dbl> <dbl> <dbl> <dbl> <dbl> <dbl>  <dbl>  <dbl>  <dbl>  <dbl>  <dbl> <dbl> <dbl> <dbl> <dbl> <dbl> <dbl> <dbl> <dbl> <dbl> <dbl> <dbl> <dbl> <dbl> <dbl> <dbl> <dbl> <dbl> <dbl> <dbl> <dbl> <dbl> <dbl> <dbl> <dbl> <dbl> <dbl> <dbl> <dbl> <dbl>
 1 US000  5.00 111110  28.0  1.00  1990  1.00    NA    NA    NA    NA    NA    NA 2.16e²  354    353    371   1.57e⁶     0     0   337    NA  1.00  1.00  1.00  1.00  1.00     0     0  1.00    NA     0     0     0     0     0     0     0     0     0     0     0     0     0     0     0     0
 2 US000  5.00 111110  28.0  2.00  1990  1.00    NA    NA    NA    NA    NA    NA 9.80e¹  547    577    640   1.95e⁶     0     0   255    NA  1.00  1.00  1.00  1.00  1.00     0     0  1.00    NA     0     0     0     0     0     0     0     0     0     0     0     0     0     0     0     0
 3 US000  5.00 111110  28.0  3.00  1990  1.00    NA    NA    NA    NA    NA    NA 4.00e¹  439    450    519   1.32e⁶     0     0   216    NA  1.00  1.00  1.00  1.00  1.00     0     0  1.00    NA     0     0     0     0     0     0     0     0     0     0     0     0     0     0     0     0
 4 US000  5.00 111110  28.0  4.00  1990  1.00    NA    NA    NA    NA    NA    NA 1.40e¹  336    336    382   1.01e⁶     0     0   220    NA  1.00  1.00  1.00  1.00  1.00     0     0  1.00    NA     0     0     0     0     0     0     0     0     0     0     0     0     0     0     0     0
 5 US000  5.00 111120  28.0  1.00  1990  1.00    NA    NA    NA    NA    NA    NA 2.60e¹   39.0   33.0   39.0 1.30e⁵     0     0   270    NA  1.00  1.00  1.00  1.00  1.00     0     0  1.00    NA     0     0     0     0     0     0     0     0     0     0     0     0     0     0     0     0
 6 US000  5.00 111120  28.0  2.00  1990  1.00    NA    NA    NA    NA    NA    NA 5.00e⁰   21.0   23.0   28.0 6.87e⁴     0     0   220    NA  1.00  1.00  1.00  1.00  1.00     0     0  1.00    NA     0     0     0     0     0     0     0     0     0     0     0     0     0     0     0     0
 7 US000  5.00 111130  28.0  1.00  1990  1.00    NA    NA    NA    NA    NA    NA 8.20e¹   76.0   73.0   85.0 3.28e⁵     0     0   324    NA  1.00  1.00  1.00  1.00  1.00     0     0  1.00    NA     0     0     0     0     0     0     0     0     0     0     0     0     0     0     0     0
 8 US000  5.00 111140  28.0  1.00  1990  1.00    NA    NA    NA    NA    NA    NA 1.92e³ 1369   1314   1575   5.09e⁶     0     0   276    NA  1.00  1.00  1.00  1.00  1.00     0     0  1.00    NA     0     0     0     0     0     0     0     0     0     0     0     0     0     0     0     0
 9 US000  5.00 111140  28.0  2.00  1990  1.00    NA    NA    NA    NA    NA    NA 8.50e¹  374    404    526   1.34e⁶     0     0   237    NA  1.00  1.00  1.00  1.00  1.00     0     0  1.00    NA     0     0     0     0     0     0     0     0     0     0     0     0     0     0     0     0
10 US000  5.00 111140  28.0  4.00  1990  1.00    NA    NA    NA    NA    NA    NA 8.00e⁰  193    211    224   7.45e⁵     0     0   274    NA  1.00  1.00  1.00  1.00  1.00     0     0  1.00    NA     0     0     0     0     0     0     0     0     0     0     0     0     0     0     0     0
# ... with 208,657 more rows

Faster download with annual frequencies

The BLS provides quarterly as well as annual averages, which are lighter. There is now an option to download directly the annual average using a frequency option. The default is quarterly, so everything should be backward compatible. Let’s see first with the quarterly data (warning it is slow):

dt_naics <- get_qcew_cut(     
  data_cut = 16,     
  industry = "naics",  frequency = "quarter",  
  year_start = 2000, year_end = 2005,    
  path_data = "~/Downloads/", write = F)

as_tibble(dt_naics)
# A tibble: 18,028 x 42
   area_fips own_code indus… agglv… size_…  year   qtr discl… qtrly_… month… month… month… total… taxa… qtrl… avg_… lq_d… lq_q… lq_m… lq_m… lq_m… lq_t… lq_t… lq_q… lq_a… oty_… oty_… oty_q… oty_mo… oty_mo… oty_mo… oty_m… oty_mo… oty_m… oty_to… oty_to… oty_… oty_… oty_… oty_… oty_av… oty_av…
   <chr>        <dbl>  <dbl>  <dbl>  <dbl> <dbl> <dbl> <chr>    <dbl>  <dbl>  <dbl>  <dbl>  <dbl> <dbl> <dbl> <dbl> <dbl> <dbl> <dbl> <dbl> <dbl> <dbl> <dbl> <dbl> <dbl> <dbl> <dbl>  <dbl>   <dbl>   <dbl>   <dbl>  <dbl>   <dbl>  <dbl>   <dbl>   <dbl> <dbl> <dbl> <dbl> <dbl>   <dbl>   <dbl>
 1 US000         1.00   1125   16.0      0  2000  1.00 ""        2.00 7.00e⁰ 7.00e⁰ 7.00e⁰ 5.24e⁴     0     0   576    NA  1.00  1.00  1.00  1.00  1.00     0     0  1.00    NA  0      0    -  1.00 -12.5   -  1.00 -12.5  -  1.00 -12.5  -1.90e³ - 3.50      0     0     0     0   54.0   10.3  
 2 US000         1.00   1125   16.0      0  2000  2.00 ""        2.00 7.00e⁰ 7.00e⁰ 8.00e⁰ 5.59e⁴     0     0   587    NA  1.00  1.00  1.00  1.00  1.00     0     0  1.00    NA  0      0    -  1.00 -12.5      0      0       1.00  14.3   1.26e⁴  29.0       0     0     0     0  132     29.0  
 3 US000         1.00   1125   16.0      0  2000  3.00 ""        2.00 8.00e⁰ 8.00e⁰ 8.00e⁰ 5.99e⁴     0     0   576    NA  1.00  1.00  1.00  1.00  1.00     0     0  1.00    NA  0      0       1.00  14.3      1.00  14.3     1.00  14.3   9.74e³  19.4       0     0     0     0   25.0    4.50 
 4 US000         1.00   1125   16.0      0  2000  4.00 ""        3.00 8.00e⁰ 8.00e⁰ 8.00e⁰ 6.42e⁴     0     0   617    NA  1.00  1.00  1.00  1.00  1.00     0     0  1.00    NA  1.00  50.0     1.00  14.3      1.00  14.3     1.00  14.3   1.34e⁴  26.4       0     0     0     0   59.0   10.6  
 5 US000         1.00   1131   16.0      0  2000  1.00 ""       78.0  4.09e³ 3.92e³ 3.93e³ 3.66e⁷     0     0   706    NA  1.00  1.00  1.00  1.00  1.00     0     0  1.00    NA -1.00 - 1.30 -237    - 5.50  -217    - 5.20 -282    - 6.70 -1.22e⁵ - 0.300     0     0     0     0   38.0    5.70 
 6 US000         1.00   1131   16.0      0  2000  2.00 ""       78.0  4.19e³ 4.57e³ 5.26e³ 4.77e⁷     0     0   786    NA  1.00  1.00  1.00  1.00  1.00     0     0  1.00    NA  1.00   1.30 -315    - 7.00  -255    - 5.30  250      5.00  7.70e⁶  19.2       0     0     0     0  142     22.0  
 7 US000         1.00   1131   16.0      0  2000  3.00 ""       78.0  5.85e³ 5.67e³ 5.47e³ 5.86e⁷     0     0   796    NA  1.00  1.00  1.00  1.00  1.00     0     0  1.00    NA  0      0    - 97.0  - 1.60  -167    - 2.90 -110    - 2.00 -1.43e⁶ - 2.40      0     0     0     0 -  1.00 - 0.100
 8 US000         1.00   1131   16.0      0  2000  4.00 ""       78.0  4.84e³ 4.49e³ 4.43e³ 5.09e⁷     0     0   853    NA  1.00  1.00  1.00  1.00  1.00     0     0  1.00    NA  0      0    -502    - 9.40  -146    - 3.10  205      4.80 -1.07e⁵ - 0.200     0     0     0     0   25.0    3.00 
 9 US000         1.00   2211   16.0      0  2000  1.00 ""      140    1.23e⁴ 1.23e⁴ 1.23e⁴ 1.91e⁸     0     0  1193    NA  1.00  1.00  1.00  1.00  1.00     0     0  1.00    NA -5.00 - 3.40 -201    - 1.60  -157    - 1.30 -125    - 1.00  1.54e⁷   8.80      0     0     0     0  110     10.2  
10 US000         1.00   2211   16.0      0  2000  2.00 ""      141    1.24e⁴ 1.24e⁴ 1.24e⁴ 1.83e⁸     0     0  1138    NA  1.00  1.00  1.00  1.00  1.00     0     0  1.00    NA -2.00 - 1.40   49.0    0.400    5.00   0       6.00   0     2.54e⁷  16.1       0     0     0     0  157     16.0  
# ... with 18,018 more rows

Now let’s download the data only at annual frequency (similar to the size cuts from earlier):

dt_naics_year <- get_qcew_cut(     
  data_cut = 16,     
  industry = "naics",  frequency = "year",  
  year_start = 2000, year_end = 2005,    
  path_data = "~/Downloads/", write = F)

as_tibble(dt_naics_year)
# A tibble: 4,507 x 38
   area_fips own_code industry_code agglvl_code size_code  year   qtr disclosure_code annual… annual… total_… taxab… annua… annua… avg_a… lq_di… lq_a… lq_a… lq_t… lq_t… lq_a… lq_a… lq_a… oty_… oty_… oty_a… oty_an… oty_ann… oty_to… oty_tot… oty_… oty_… oty_… oty_… oty_a… oty_a… oty_… oty_a…
   <chr>        <dbl>         <dbl>       <dbl>     <dbl> <dbl> <dbl> <chr>             <dbl>   <dbl>   <dbl>  <dbl>  <dbl>  <dbl>  <dbl>  <dbl> <dbl> <dbl> <dbl> <dbl> <dbl> <dbl> <dbl> <dbl> <dbl>  <dbl>   <dbl>    <dbl>   <dbl>    <dbl> <dbl> <dbl> <dbl> <dbl>  <dbl>  <dbl> <dbl>  <dbl>
 1 US000         1.00          1125        16.0         0  2000    NA ""                 2.00  8.00e⁰  2.32e⁵      0      0    589  30648     NA  1.00  1.00  1.00     0     0  1.00  1.00    NA  0      0     1.00e⁰   14.3    3.38e⁴   17.0       0     0     0     0   68.0  13.1   3567  13.2 
 2 US000         1.00          1131        16.0         0  2000    NA ""                78.0   4.73e³  1.94e⁸      0      0    788  40994     NA  1.00  1.00  1.00     0     0  1.00  1.00    NA  0      0    -1.56e² -  3.20   6.04e⁶    3.20      0     0     0     0   49.0   6.60  2547   6.60
 3 US000         1.00          2211        16.0         0  2000    NA ""               142     1.24e⁴  7.90e⁸      0      0   1222  63557     NA  1.00  1.00  1.00     0     0  1.00  1.00    NA -2.00 - 1.40 -5.10e¹ -  0.400  8.53e⁷   12.1       0     0     0     0  136    12.5   7096  12.6 
 4 US000         1.00          2213        16.0         0  2000    NA ""                10.0   9.37e²  2.67e⁷      0      0    547  28463     NA  1.00  1.00  1.00     0     0  1.00  1.00    NA  1.00  11.1   1.14e²   13.9   -4.72e⁶ - 15.0       0     0     0     0 -186   -25.4  -9643 -25.3 
 5 US000         1.00          2362        16.0         0  2000    NA ""                 1.00  1.00e⁰  6.73e⁴      0      0   1294  67270     NA  1.00  1.00  1.00     0     0  1.00  1.00    NA  0      0     1.00e⁰  100      4.32e⁴  180         0     0     0     0  184    16.6   9555  16.6 
 6 US000         1.00          3231        16.0         0  2000    NA ""                 8.00  4.86e³  2.69e⁸      0      0   1063  55287     NA  1.00  1.00  1.00     0     0  1.00  1.00    NA  0      0    -6.10e¹ -  1.20   8.19e⁵    0.300     0     0     0     0   16.0   1.50   852   1.60
 7 US000         1.00          3259        16.0         0  2000    NA ""                 3.00  3.10e²  1.67e⁷      0      0   1037  53945     NA  1.00  1.00  1.00     0     0  1.00  1.00    NA  0      0    -2.00e⁰ -  0.600  1.30e⁶    8.40      0     0     0     0   84.0   8.80  4396   8.90
 8 US000         1.00          3321        16.0         0  2000    NA ""                 3.00  4.75e²  3.06e⁷      0      0   1241  64540     NA  1.00  1.00  1.00     0     0  1.00  1.00    NA  1.00  50.0   1.26e²   36.1    9.43e⁶   44.5       0     0     0     0   72.0   6.20  3748   6.20
 9 US000         1.00          3329        16.0         0  2000    NA ""                10.0   1.23e⁴  6.24e⁸      0      0    976  50746     NA  1.00  1.00  1.00     0     0  1.00  1.00    NA  0      0    -1.32e³ -  9.70   5.99e⁶    1.00      0     0     0     0  104    11.9   5379  11.9 
10 US000         1.00          3364        16.0         0  2000    NA ""                 1.00  2.60e³  6.86e⁷      0      0    508  26390     NA  1.00  1.00  1.00     0     0  1.00  1.00    NA  0      0    -4.50e¹ -  1.70  -1.19e⁷ - 14.8       0     0     0     0 - 77.0 -13.2  -4048 -13.3 
# ... with 4,497 more rows

Tidy the data

The data is still raw from the BLS download. We can clean the data in two ways: a monthly dataset with employment by categories and a quarterly dataset with only number of firms. Finally we allow an option for aggregating both types. Note this function works only for the quarterly version of the data.

dt_naics_tidy <- tidy_qcew(dt_naics, frequency = "month")

as_tibble(dt_naics_tidy)
# A tibble: 54,084 x 9
    year quarter industry_code area_fips own_code size_code agglvl_code month emplvl
   <dbl>   <dbl>         <dbl> <chr>        <dbl>     <dbl>       <dbl> <dbl>  <dbl>
 1  2000    1.00          1111 US000         5.00         0        16.0  1.00  21243
 2  2000    1.00          1111 US000         5.00         0        16.0  2.00  21759
 3  2000    1.00          1111 US000         5.00         0        16.0  3.00  23600
 4  2000    2.00          1111 US000         5.00         0        16.0  4.00  26142
 5  2000    2.00          1111 US000         5.00         0        16.0  5.00  27287
 6  2000    2.00          1111 US000         5.00         0        16.0  6.00  29355
 7  2000    3.00          1111 US000         5.00         0        16.0  7.00  39098
 8  2000    3.00          1111 US000         5.00         0        16.0  8.00  33418
 9  2000    3.00          1111 US000         5.00         0        16.0  9.00  30534
10  2000    4.00          1111 US000         5.00         0        16.0 10.0   30475
# ... with 54,074 more rows
…
